{
  "project_info": {
    "project_number": "946887456748",
    "firebase_url": "https://staging-buggy-tlc-driver.firebaseio.com",
    "project_id": "staging-buggy-tlc-driver",
    "storage_bucket": "staging-buggy-tlc-driver.appspot.com"
  },
  "client": [
    {
      "client_info": {
        "mobilesdk_app_id": "1:946887456748:android:0745ca84418f2f07b972c9",
        "android_client_info": {
          "package_name": "com.joinbuggy.driverapp"
        }
      },
      "oauth_client": [
        {
          "client_id": "946887456748-pv11e7i4unjiqh86h66g5pms2ej81i8f.apps.googleusercontent.com",
          "client_type": 3
        }
      ],
      "api_key": [
        {
          "current_key": "AIzaSyCjKUs0b_uX3rzhtrYrCqgoojTky99NDkM"
        }
      ],
      "services": {
        "appinvite_service": {
          "other_platform_oauth_client": [
            {
              "client_id": "946887456748-pv11e7i4unjiqh86h66g5pms2ej81i8f.apps.googleusercontent.com",
              "client_type": 3
            }
          ]
        }
      }
    }
  ],
  "configuration_version": "1"
}